------------------------------------------------------------------------
r1072389 | scripty | 2010-01-10 04:14:17 +0000 (Sun, 10 Jan 2010) | 1 line

SVN_SILENT made messages (.desktop file)
------------------------------------------------------------------------
