------------------------------------------------------------------------
r1217112 | arnorehn | 2011-01-26 09:29:10 +1300 (Wed, 26 Jan 2011) | 3 lines

search all modules for argument types.

backported from QtRuby.
------------------------------------------------------------------------
