------------------------------------------------------------------------
r945300 | tmcguire | 2009-03-27 08:39:08 +0000 (Fri, 27 Mar 2009) | 9 lines

Backport r945039 by mlaurent from trunk to the 4.2 branch:

Fix kolab issue 3508
We paste text where cursor was.
But in kmeditor (don't know why) cursor position is not updated.
=> use KMeditor::dropEvent which paste in the correct place.
Need to backport to e4


------------------------------------------------------------------------
r945593 | dfaure | 2009-03-27 19:01:19 +0000 (Fri, 27 Mar 2009) | 2 lines

stop crashing on me regularly

------------------------------------------------------------------------
r945846 | mleupold | 2009-03-28 12:51:19 +0000 (Sat, 28 Mar 2009) | 9 lines

Backport of r945792 to the 4.2 branch.

Fix use of KStandardDirs:
- use appdata instead of data wherever possible
- replace KStandardDirs::locateLocal("data", "knode/")+"otherdir/" by KStandardDirs::locateLocal("data", "knode/otherdir/") as this fixes auto-creating otherdir if it doesn't 
exist yet.

CCBUG: 161595

------------------------------------------------------------------------
r945848 | mleupold | 2009-03-28 12:53:56 +0000 (Sat, 28 Mar 2009) | 7 lines

Backport of r945820.

Fix the "cut" action in KNode's composer.

CCBUG: 185725


------------------------------------------------------------------------
r945853 | mleupold | 2009-03-28 13:01:35 +0000 (Sat, 28 Mar 2009) | 4 lines

Backport of r945671.

Don't let KIO handle authentication for us, nullify the uiDelegate.

------------------------------------------------------------------------
r945861 | mleupold | 2009-03-28 13:11:39 +0000 (Sat, 28 Mar 2009) | 6 lines

Backport of r945063.

Automatically remove empty lines in the recipients-editor. On removing only move to the next line if the removed line has the focus.

CCBUG: 177543

------------------------------------------------------------------------
r946164 | djarvie | 2009-03-28 19:39:01 +0000 (Sat, 28 Mar 2009) | 3 lines

Bug 183202: Fix deferred recurring alarms being missed when they are deferred to
a time earlier than the next due alarm (for the same alarm resource).

------------------------------------------------------------------------
r946174 | djarvie | 2009-03-28 19:54:37 +0000 (Sat, 28 Mar 2009) | 2 lines

Update version number post-4.2.2

------------------------------------------------------------------------
r946212 | smartins | 2009-03-28 21:25:24 +0000 (Sat, 28 Mar 2009) | 10 lines

Backport r946195 by smartins from trunk to the 4.2 branch:

Some minor refactoring.

Created a BaseView::usesFullWindow() and reimplemented it in month and todo view.

This helps making koviewmanager more agnostic about the view type, it has so many "if currentView == Foo then bar".

SVN_SILENT

------------------------------------------------------------------------
r946250 | djarvie | 2009-03-28 22:59:20 +0000 (Sat, 28 Mar 2009) | 1 line

Include another bugfix
------------------------------------------------------------------------
r946294 | smartins | 2009-03-29 02:40:12 +0000 (Sun, 29 Mar 2009) | 4 lines

Backport r946289 by smartins from trunk to the 4.2 branch:

Put the brightness factor in a constant, and increase the contrast slightly.

------------------------------------------------------------------------
r946723 | scripty | 2009-03-30 07:09:41 +0000 (Mon, 30 Mar 2009) | 1 line

SVN_SILENT made messages (.desktop file)
------------------------------------------------------------------------
r946745 | mlaurent | 2009-03-30 08:40:30 +0000 (Mon, 30 Mar 2009) | 3 lines

Backport:
fix crash kolab issue 3312

------------------------------------------------------------------------
r946965 | mlaurent | 2009-03-30 16:22:29 +0000 (Mon, 30 Mar 2009) | 3 lines

Backport:
Add focus

------------------------------------------------------------------------
r946977 | mlaurent | 2009-03-30 16:47:47 +0000 (Mon, 30 Mar 2009) | 3 lines

Backport:
don't try to show a menu when there is not entry

------------------------------------------------------------------------
r947259 | mlaurent | 2009-03-31 08:59:06 +0000 (Tue, 31 Mar 2009) | 3 lines

Backport:
sieve doesn't accept empty script

------------------------------------------------------------------------
r947403 | mlaurent | 2009-03-31 13:11:58 +0000 (Tue, 31 Mar 2009) | 4 lines

Backport:
Refresh when we cancel create new script.
otherwise an item is in list but not exist on server

------------------------------------------------------------------------
r947533 | winterz | 2009-03-31 18:06:14 +0000 (Tue, 31 Mar 2009) | 4 lines

backport SVN commit 946949 by mlaurent:

Fix issue kolab 2846

------------------------------------------------------------------------
r947709 | mlaurent | 2009-04-01 08:40:03 +0000 (Wed, 01 Apr 2009) | 3 lines

Backport:
fix kolab issue 3480

------------------------------------------------------------------------
r948243 | mlaurent | 2009-04-02 16:16:12 +0000 (Thu, 02 Apr 2009) | 3 lines

Backport:
fix kolab issue 2150

------------------------------------------------------------------------
r948586 | mlaurent | 2009-04-03 09:08:51 +0000 (Fri, 03 Apr 2009) | 4 lines

Backport:
return somethink
fix minor mem leak

------------------------------------------------------------------------
r948744 | mlaurent | 2009-04-03 17:10:27 +0000 (Fri, 03 Apr 2009) | 3 lines

Backport: 
don't add empty string

------------------------------------------------------------------------
r948764 | dfaure | 2009-04-03 17:56:44 +0000 (Fri, 03 Apr 2009) | 2 lines

Let me jump to readonly folders too

------------------------------------------------------------------------
r948810 | krake | 2009-04-03 20:33:29 +0000 (Fri, 03 Apr 2009) | 7 lines

Backport of Revision 948809

Some fields can occure more than once, e.g. a person having more than one mobile phone number.

This makes the search match against all values for such fields instead of only the first or preferred one.


------------------------------------------------------------------------
r949274 | smartins | 2009-04-04 19:42:55 +0000 (Sat, 04 Apr 2009) | 4 lines

Backport r947994 by smartins from trunk to the 4.2 branch:

Fix plugin loading and/or unloading segfault.

------------------------------------------------------------------------
r949282 | kloecker | 2009-04-04 20:04:27 +0000 (Sat, 04 Apr 2009) | 7 lines

Backport revision 949096 to 4.2 branch
Show the size on the server (instead of the size of the cached information) for IMAP messa
ges.

CCBUG:180945


------------------------------------------------------------------------
r949286 | kloecker | 2009-04-04 20:11:30 +0000 (Sat, 04 Apr 2009) | 6 lines

Backport revision 949275 to 4.2 branch
Calculate and show the correct folder size of IMAP folders.

CCBUG:154454


------------------------------------------------------------------------
r949428 | krake | 2009-04-05 11:09:08 +0000 (Sun, 05 Apr 2009) | 8 lines

Backport of Revision 949381

There are circumstances under which QtConcurrent::run() may use the calling thread to execute the job, which is unfortunatel
Use explicit threading instead.

CCBUG: 188058


------------------------------------------------------------------------
r949905 | mlaurent | 2009-04-06 08:22:35 +0000 (Mon, 06 Apr 2009) | 3 lines

Backport:
fix enable/disable actions

------------------------------------------------------------------------
r949912 | mlaurent | 2009-04-06 08:34:42 +0000 (Mon, 06 Apr 2009) | 3 lines

Backport:
Add autofillbackground

------------------------------------------------------------------------
r949913 | mlaurent | 2009-04-06 08:37:11 +0000 (Mon, 06 Apr 2009) | 3 lines

Backport:
don't exec proc if we canceled it

------------------------------------------------------------------------
r949918 | mlaurent | 2009-04-06 08:40:23 +0000 (Mon, 06 Apr 2009) | 3 lines

Backport:
fix potential crash

------------------------------------------------------------------------
r949920 | mleupold | 2009-04-06 08:52:22 +0000 (Mon, 06 Apr 2009) | 6 lines

Backport of r949915.

Don't crash on closing an article widget opened by clicking a reference while the article isn't fully loaded yet.

CCBUG: 71102

------------------------------------------------------------------------
r949934 | mlaurent | 2009-04-06 09:36:12 +0000 (Mon, 06 Apr 2009) | 5 lines

Backport:
Fix display text bug found in linux expo France.
We must accept html it's html 
Const'if

------------------------------------------------------------------------
r950053 | mlaurent | 2009-04-06 13:25:53 +0000 (Mon, 06 Apr 2009) | 3 lines

Backport:
don't save passwd in Folder-*

------------------------------------------------------------------------
r950239 | mlaurent | 2009-04-06 16:58:40 +0000 (Mon, 06 Apr 2009) | 3 lines

Backport:
not necessary

------------------------------------------------------------------------
r950512 | mlaurent | 2009-04-07 12:29:51 +0000 (Tue, 07 Apr 2009) | 3 lines

Backport:
Fix crash

------------------------------------------------------------------------
r950586 | mlaurent | 2009-04-07 13:30:12 +0000 (Tue, 07 Apr 2009) | 3 lines

Backport:
Fix enable disable "Response request" when it's myself

------------------------------------------------------------------------
r950618 | mlaurent | 2009-04-07 13:56:58 +0000 (Tue, 07 Apr 2009) | 3 lines

Backport:
Remove it, it breaks double click to select freebusy url

------------------------------------------------------------------------
r950721 | mlaurent | 2009-04-07 16:13:00 +0000 (Tue, 07 Apr 2009) | 3 lines

Backport:
Fix kolab issue #3217

------------------------------------------------------------------------
r950856 | aacid | 2009-04-07 21:59:35 +0000 (Tue, 07 Apr 2009) | 4 lines

Backport r950340 | aacid | 2009-04-06 23:21:18 +0200 (Mon, 06 Apr 2009) | 4 lines

I18N_NOOP2 is evil as it's very easy to loose the context please try not to use it

------------------------------------------------------------------------
r951032 | mlaurent | 2009-04-08 13:52:28 +0000 (Wed, 08 Apr 2009) | 5 lines

Adapt/backport
Fix part of kolab issue 3492
defined smtp as default transport, otherwise we don't see a default smtp


------------------------------------------------------------------------
r951243 | djarvie | 2009-04-08 19:21:19 +0000 (Wed, 08 Apr 2009) | 2 lines

Update to KDE4

------------------------------------------------------------------------
r951246 | djarvie | 2009-04-08 19:46:07 +0000 (Wed, 08 Apr 2009) | 2 lines

Update to KDE4

------------------------------------------------------------------------
r951248 | djarvie | 2009-04-08 19:47:53 +0000 (Wed, 08 Apr 2009) | 1 line

Use more suitable email icon
------------------------------------------------------------------------
r951291 | djarvie | 2009-04-08 21:26:25 +0000 (Wed, 08 Apr 2009) | 2 lines

US English version

------------------------------------------------------------------------
r951314 | djarvie | 2009-04-08 22:08:54 +0000 (Wed, 08 Apr 2009) | 2 lines

Use Ozone decoration

------------------------------------------------------------------------
r951325 | djarvie | 2009-04-08 22:27:19 +0000 (Wed, 08 Apr 2009) | 2 lines

Once more... use correct email icon

------------------------------------------------------------------------
r951424 | mlaurent | 2009-04-09 09:31:38 +0000 (Thu, 09 Apr 2009) | 4 lines

Backport:
Don't search on ldap when we disable completion


------------------------------------------------------------------------
r951460 | mlaurent | 2009-04-09 12:34:14 +0000 (Thu, 09 Apr 2009) | 3 lines

Backport
Fix minor leak (it cleans when we close composer)

------------------------------------------------------------------------
r951663 | smartins | 2009-04-09 20:49:22 +0000 (Thu, 09 Apr 2009) | 5 lines

Backport r951643 by smartins from trunk to the 4.2 branch:

Use "Search" as the initial text in Folder Quick Search.
I did this junior job with astrobear while helping him hack around.

------------------------------------------------------------------------
r951803 | tmcguire | 2009-04-10 09:40:58 +0000 (Fri, 10 Apr 2009) | 6 lines

Backport r950884 by tmcguire from trunk to the 4.2 branch:

Don't crash when trying to activate groupware folders, the account was 0 for me.

kolab/issue2979

------------------------------------------------------------------------
r951880 | mlaurent | 2009-04-10 13:55:09 +0000 (Fri, 10 Apr 2009) | 3 lines

Backport fix #189050
fix resize notes

------------------------------------------------------------------------
r952122 | smartins | 2009-04-11 00:00:50 +0000 (Sat, 11 Apr 2009) | 4 lines

Backport r952121 by smartins from trunk to the 4.2 branch:

fix broken signal

------------------------------------------------------------------------
r952871 | aacid | 2009-04-12 18:33:23 +0000 (Sun, 12 Apr 2009) | 4 lines

Backport r952870 | aacid | 2009-04-12 20:31:54 +0200 (Sun, 12 Apr 2009) | 3 lines

I18N_NOOP2 is evil and should be used with extreme care, otherwise you end up with untranslatable messages

------------------------------------------------------------------------
r953498 | tmcguire | 2009-04-14 07:31:53 +0000 (Tue, 14 Apr 2009) | 5 lines

Backport r951964 by tmcguire from trunk to the 4.2 branch:

Don't popup an email selection dialog when I click a contact which has more than one email address.


------------------------------------------------------------------------
r953499 | tmcguire | 2009-04-14 07:35:43 +0000 (Tue, 14 Apr 2009) | 7 lines

Backport r949371 by tmcguire from trunk to the 4.2 branch:

When adding a message fails, abort the mail check.
This fixes a crash because the slave still sent in data, even though we didn't expect
any pending messages anymore.


------------------------------------------------------------------------
r953502 | tmcguire | 2009-04-14 07:57:04 +0000 (Tue, 14 Apr 2009) | 6 lines

Backport r951208 by gladhorn from trunk to the 4.2 branch:

when pasting a link attach the file
CCBUG: 188313


------------------------------------------------------------------------
r953503 | tmcguire | 2009-04-14 08:02:39 +0000 (Tue, 14 Apr 2009) | 8 lines

Backport r951220 by tmcguire from trunk to the 4.2 branch:

Remember the docked state for session management.
Patch by Mathieu Seigneurin <matsei@seimat.net>, thanks!

CCBUG: 75673


------------------------------------------------------------------------
r953504 | tmcguire | 2009-04-14 08:04:39 +0000 (Tue, 14 Apr 2009) | 4 lines

Backport r951221 by tmcguire from trunk to the 4.2 branch:

This is needed as well for the docked state restoring.

------------------------------------------------------------------------
r953507 | tmcguire | 2009-04-14 08:10:32 +0000 (Tue, 14 Apr 2009) | 12 lines

Backport r951937 by marten from trunk to the 4.2 branch:

Ensure that the default for "Use custom templates in this folder" is off.

Make the "Insert command" button in the templates dialogue into a proper
menu button, using QPushButton::setMenu().

Eliminate "No newline at end of file" warning for stringutil.h

CCBUG:184307


------------------------------------------------------------------------
r953509 | tmcguire | 2009-04-14 08:11:50 +0000 (Tue, 14 Apr 2009) | 7 lines

Backport r952227 by tmcguire from trunk to the 4.2 branch:

Don't use the size stored in the config as the minimum size, since then you can't resize it.
Now my KMail config dialog with settings migrated from my desktop fits into the screen again.
KRruler says it's about 800x650 now, including borders and titlebar


------------------------------------------------------------------------
r953611 | tmcguire | 2009-04-14 12:10:25 +0000 (Tue, 14 Apr 2009) | 22 lines

Backport r953607 by tmcguire from trunk to the 4.2 branch:

Merged revisions 951531 via svnmerge from 
svn+ssh://tmcguire@svn.kde.org/home/kde/branches/kdepim/enterprise4/kdepim

................
  r951531 | winterz | 2009-04-09 17:04:48 +0200 (Thu, 09 Apr 2009) | 12 lines
  
  Merged revisions 951514 via svnmerge from 
  https://svn.kde.org/home/kde/branches/kdepim/enterprise/kdepim
  
  ........
    r951514 | mlaurent | 2009-04-09 10:15:35 -0400 (Thu, 09 Apr 2009) | 5 lines
    
    Fix kolab issue 3244
    dcopResetMessage was never call because we didn't delete widget
    so when we import mbox -> delete this mbox -> reimporte this mbox
    it crashed
  ........
................


------------------------------------------------------------------------
r953612 | tmcguire | 2009-04-14 12:12:18 +0000 (Tue, 14 Apr 2009) | 30 lines

Backport r953604 by tmcguire from trunk to the 4.2 branch:

Merged revisions 951490,951493 via svnmerge from 
svn+ssh://tmcguire@svn.kde.org/home/kde/branches/kdepim/enterprise4/kdepim

................
  r951490 | winterz | 2009-04-09 15:53:59 +0200 (Thu, 09 Apr 2009) | 9 lines
  
  Merged revisions 951414 via svnmerge from 
  https://svn.kde.org/home/kde/branches/kdepim/enterprise/kdepim
  
  ........
    r951414 | mlaurent | 2009-04-09 04:57:30 -0400 (Thu, 09 Apr 2009) | 2 lines
    
    Don't change state when we can't encrypt it 
  ........
................
  r951493 | winterz | 2009-04-09 15:58:38 +0200 (Thu, 09 Apr 2009) | 9 lines
  
  Merged revisions 951416 via svnmerge from 
  https://svn.kde.org/home/kde/branches/kdepim/enterprise/kdepim
  
  ........
    r951416 | mlaurent | 2009-04-09 05:01:57 -0400 (Thu, 09 Apr 2009) | 2 lines
    
    Don't change state when we can't sign mail
  ........
................


------------------------------------------------------------------------
r953613 | tmcguire | 2009-04-14 12:13:40 +0000 (Tue, 14 Apr 2009) | 23 lines

Backport r953550 by tmcguire from trunk to the 4.2 branch:

Merged revisions 944950,953549 via svnmerge from 
svn+ssh://tmcguire@svn.kde.org/home/kde/branches/kdepim/enterprise4/kdepim

................
  r944950 | winterz | 2009-03-26 15:54:01 +0100 (Thu, 26 Mar 2009) | 9 lines
  
  Merged revisions 944913 via svnmerge from 
  https://svn.kde.org/home/kde/branches/kdepim/enterprise/kdepim
  
  ........
    r944913 | mlaurent | 2009-03-26 09:40:50 -0400 (Thu, 26 Mar 2009) | 2 lines
    
    Fix kolab issue 3471
  ........
................
  r953549 | tmcguire | 2009-04-14 11:42:40 +0200 (Tue, 14 Apr 2009) | 1 line
  
  SVN_SILENT coding style
................


------------------------------------------------------------------------
r953614 | tmcguire | 2009-04-14 12:15:51 +0000 (Tue, 14 Apr 2009) | 21 lines

Backport r953578 by tmcguire from trunk to the 4.2 branch:

Merged revisions 948667 via svnmerge from 
svn+ssh://tmcguire@svn.kde.org/home/kde/branches/kdepim/enterprise4/kdepim

................
  r948667 | winterz | 2009-04-03 15:51:07 +0200 (Fri, 03 Apr 2009) | 11 lines
  
  Merged revisions 948569 via svnmerge from 
  https://svn.kde.org/home/kde/branches/kdepim/enterprise/kdepim
  
  ........
    r948569 | mlaurent | 2009-04-03 04:09:46 -0400 (Fri, 03 Apr 2009) | 4 lines
    
    Don't allow to change folder type when it's system folder in a groupware too
    it's more logical.
    fix issue 3480
  ........
................


------------------------------------------------------------------------
r953964 | djarvie | 2009-04-14 20:50:33 +0000 (Tue, 14 Apr 2009) | 2 lines

Fix possible crash on exit

------------------------------------------------------------------------
r953980 | djarvie | 2009-04-14 21:08:53 +0000 (Tue, 14 Apr 2009) | 2 lines

Fix undo/redo memory leak

------------------------------------------------------------------------
r954139 | mlaurent | 2009-04-15 08:39:34 +0000 (Wed, 15 Apr 2009) | 6 lines

Backport:
We canceled store in resource => don't store it
(don't know how it works before and not crash... perhaps it fallbacked on
default resources when resource selected was nil)


------------------------------------------------------------------------
r954247 | mlaurent | 2009-04-15 16:20:47 +0000 (Wed, 15 Apr 2009) | 6 lines

backport:
Fix an other crash when name of folder is empty
and when it's empty change name to "last search" when
we start an new search


------------------------------------------------------------------------
r954576 | smartins | 2009-04-15 23:07:38 +0000 (Wed, 15 Apr 2009) | 7 lines

Backport r952200 by smartins from trunk to the 4.2 branch:

Use deleteLater() instead of "delete this" to prevent a crash. Normaly, when deleting a parent, relations are removed and only then
the parent is deleted. But if for some reason the parent is deleted first, it will recursively delete child nodes (which aren't
unparented yet).


------------------------------------------------------------------------
r954733 | scripty | 2009-04-16 07:40:43 +0000 (Thu, 16 Apr 2009) | 1 line

SVN_SILENT made messages (.desktop file)
------------------------------------------------------------------------
r954993 | djarvie | 2009-04-16 17:46:01 +0000 (Thu, 16 Apr 2009) | 1 line

Add diagnostic output
------------------------------------------------------------------------
r955083 | smartins | 2009-04-16 22:11:57 +0000 (Thu, 16 Apr 2009) | 5 lines

Backport r955076 by smartins from trunk to the 4.2 branch:

Set focus in the title.
Uses the QTimer hack, this is temporary until koeditorgeneraljournal reuses stuff from kogeneraleditor.

------------------------------------------------------------------------
r955249 | mlaurent | 2009-04-17 09:23:53 +0000 (Fri, 17 Apr 2009) | 6 lines

Backport:
Fix bug #189783
SessionMangment send a closeEvent which hidden notes
=> it stored notes as hidden but it was not true.


------------------------------------------------------------------------
r955441 | osterfeld | 2009-04-17 16:44:41 +0000 (Fri, 17 Apr 2009) | 9 lines

backport:

r951974 | osterfeld | 2009-04-10 19:04:17 +0200 (Fri, 10 Apr 2009) | 3 lines

Paste clipboard contents in add feed dlg if it is a valid URL
Patch by Jordi De Groof, jordi.degroof at gmail.com
CCBUG:111214


------------------------------------------------------------------------
r955443 | osterfeld | 2009-04-17 16:48:31 +0000 (Fri, 17 Apr 2009) | 13 lines

backport

r952087 | osterfeld | 2009-04-10 23:21:22 +0200 (Fri, 10 Apr 2009) | 7 lines

fix minimize/restore behavior when clicking the tray icon
CCBUG:189181
CCBUG:153577
CCBUG:168845
CCBUG:173838
CCBUG:178084
CCBUG:185372


------------------------------------------------------------------------
r955446 | osterfeld | 2009-04-17 16:51:45 +0000 (Fri, 17 Apr 2009) | 10 lines

backport 

r952086 | osterfeld | 2009-04-10 23:21:18 +0200 (Fri, 10 Apr 2009) | 4 lines

re-enable notifications
The standard popup is too small for notifying many items though
BUG:166216
BUG:170314


------------------------------------------------------------------------
r955617 | scripty | 2009-04-18 07:56:05 +0000 (Sat, 18 Apr 2009) | 1 line

SVN_SILENT made messages (.desktop file)
------------------------------------------------------------------------
r955811 | djarvie | 2009-04-18 15:28:14 +0000 (Sat, 18 Apr 2009) | 1 line

Fix uninitialised variable warnings
------------------------------------------------------------------------
r955833 | djarvie | 2009-04-18 16:14:55 +0000 (Sat, 18 Apr 2009) | 2 lines

Fix speech mode not working when alarm messages are displayed.

------------------------------------------------------------------------
r955888 | mlaurent | 2009-04-18 18:42:41 +0000 (Sat, 18 Apr 2009) | 3 lines

Backport:
Fix mem leak

------------------------------------------------------------------------
r955899 | ilic | 2009-04-18 19:10:58 +0000 (Sat, 18 Apr 2009) | 1 line

i18n fix: context markers (cf. bug 188820). (bport: 955897)
------------------------------------------------------------------------
r956337 | smartins | 2009-04-19 21:07:27 +0000 (Sun, 19 Apr 2009) | 6 lines

Backport r956311 by smartins from trunk to the 4.2 branch:

Items in resource view are sorted again, apparently sorting got lost with Qt4
porting.


------------------------------------------------------------------------
r956363 | smartins | 2009-04-19 22:37:11 +0000 (Sun, 19 Apr 2009) | 5 lines

Backport r956360 by smartins from trunk to the 4.2 branch:

Don't crash when changing from "Switch betwen views with tabs" to "Merge all calendars into one view" when there aren't any resources
checked.

------------------------------------------------------------------------
r957313 | smartins | 2009-04-21 19:37:05 +0000 (Tue, 21 Apr 2009) | 9 lines

Backport r957305 by smartins from trunk to the 4.2 branch:

Don't crash with bespin theme.

Didn't notice Thomas Lubking debugged the issue as well, thanks.

CCBUG: 190191


------------------------------------------------------------------------
r957460 | scripty | 2009-04-22 07:51:13 +0000 (Wed, 22 Apr 2009) | 1 line

SVN_SILENT made messages (.desktop file)
------------------------------------------------------------------------
r957721 | tmcguire | 2009-04-22 19:32:32 +0000 (Wed, 22 Apr 2009) | 9 lines

Backport r951543 by tmcguire from trunk to the 4.2 branch:

Also show the unread count if the folder has sub-folders open

Patch by Szokovacs Robert <szo@szo.hu>, thank you!

CCBUG: 188643


------------------------------------------------------------------------
r957722 | tmcguire | 2009-04-22 19:33:21 +0000 (Wed, 22 Apr 2009) | 20 lines

Backport r953555 by tmcguire from trunk to the 4.2 branch:

Merged revisions 944954 via svnmerge from 
svn+ssh://tmcguire@svn.kde.org/home/kde/branches/kdepim/enterprise4/kdepim

................
  r944954 | winterz | 2009-03-26 15:59:40 +0100 (Thu, 26 Mar 2009) | 10 lines
  
  Merged revisions 944928 via svnmerge from 
  https://svn.kde.org/home/kde/branches/kdepim/enterprise/kdepim
  
  ........
    r944928 | mlaurent | 2009-03-26 10:25:10 -0400 (Thu, 26 Mar 2009) | 3 lines
    
    By default this directory was not created
    => we can't use custom page
  ........
................


------------------------------------------------------------------------
r957723 | tmcguire | 2009-04-22 19:33:54 +0000 (Wed, 22 Apr 2009) | 7 lines

Backport r956815 by tmcguire from trunk to the 4.2 branch:

Don't show the unread count when it is 0.

Patch by Szokovacs Robert <szo at szo dot hu>, thanks!


------------------------------------------------------------------------
r957724 | tmcguire | 2009-04-22 19:35:14 +0000 (Wed, 22 Apr 2009) | 7 lines

Backport r957375 by tmcguire from trunk to the 4.2 branch:

Take word-wrapping into account when counting lines.
This is probably slow, as it recalculates this on every keypress...
(But not a problem here)


------------------------------------------------------------------------
r957725 | tmcguire | 2009-04-22 19:35:54 +0000 (Wed, 22 Apr 2009) | 20 lines

Backport r957674 by tmcguire from trunk to the 4.2 branch:

Merged revisions 956796 via svnmerge from 
svn+ssh://tmcguire@svn.kde.org/home/kde/branches/kdepim/enterprise4/kdepim

................
  r956796 | winterz | 2009-04-20 18:25:06 +0200 (Mon, 20 Apr 2009) | 10 lines
  
  Merged revisions 955259 via svnmerge from 
  https://svn.kde.org/home/kde/branches/kdepim/enterprise/kdepim
  
  ........
    r955259 | mlaurent | 2009-04-17 06:46:12 -0400 (Fri, 17 Apr 2009) | 3 lines
    
    Fix departement element
    need to backport to e4/trunk/4.2
  ........
................


------------------------------------------------------------------------
r957727 | tmcguire | 2009-04-22 19:37:11 +0000 (Wed, 22 Apr 2009) | 20 lines

Backport r957675 by tmcguire from trunk to the 4.2 branch:

Merged revisions 956798 via svnmerge from 
svn+ssh://tmcguire@svn.kde.org/home/kde/branches/kdepim/enterprise4/kdepim

................
  r956798 | winterz | 2009-04-20 18:37:48 +0200 (Mon, 20 Apr 2009) | 10 lines
  
  Merged revisions 955283 via svnmerge from 
  https://svn.kde.org/home/kde/branches/kdepim/enterprise/kdepim
  
  ........
    r955283 | mlaurent | 2009-04-17 08:06:54 -0400 (Fri, 17 Apr 2009) | 3 lines
    
    Fix X-Departement
    Need to backport to e4/trunk/4.2
  ........
................


------------------------------------------------------------------------
r957728 | tmcguire | 2009-04-22 19:38:49 +0000 (Wed, 22 Apr 2009) | 20 lines

Backport r957676 by tmcguire from trunk to the 4.2 branch:

Merged revisions 956808 via svnmerge from 
svn+ssh://tmcguire@svn.kde.org/home/kde/branches/kdepim/enterprise4/kdepim

................
  r956808 | winterz | 2009-04-20 19:08:28 +0200 (Mon, 20 Apr 2009) | 10 lines
  
  Merged revisions 955256 via svnmerge from 
  https://svn.kde.org/home/kde/branches/kdepim/enterprise/kdepim
  
  ........
    r955256 | mlaurent | 2009-04-17 06:35:34 -0400 (Fri, 17 Apr 2009) | 3 lines
    
    Fix kolab issue 3303
    departement and title were not saving/restoring.
  ........
................


------------------------------------------------------------------------
r957729 | tmcguire | 2009-04-22 19:42:17 +0000 (Wed, 22 Apr 2009) | 16 lines

Backport r957696 by tmcguire from trunk to the 4.2 branch:

Merged revisions 956870 via svnmerge from 
svn+ssh://tmcguire@svn.kde.org/home/kde/branches/kdepim/enterprise4/kdepim

........
  r956870 | winterz | 2009-04-20 22:08:34 +0200 (Mon, 20 Apr 2009) | 6 lines
  
  default, make the todo view use the full window (i.e. don't show the sidebar)
  fixes kolab/issue3573
  
  This change needs to be ported to trunk and 4.2
  But not needed in E35 (where this is already the default)
........


------------------------------------------------------------------------
r957731 | tmcguire | 2009-04-22 19:46:14 +0000 (Wed, 22 Apr 2009) | 20 lines

Backport r957666 by tmcguire from trunk to the 4.2 branch:

Merged revisions 953652 via svnmerge from 
svn+ssh://tmcguire@svn.kde.org/home/kde/branches/kdepim/enterprise4/kdepim

................
  r953652 | winterz | 2009-04-14 14:59:59 +0200 (Tue, 14 Apr 2009) | 10 lines
  
  Merged revisions 953518 via svnmerge from 
  https://svn.kde.org/home/kde/branches/kdepim/enterprise/kdepim
  
  ........
    r953518 | mlaurent | 2009-04-14 04:29:56 -0400 (Tue, 14 Apr 2009) | 3 lines
    
    Fix mem leak.
    Necessary to port it to e4/kde4.2/trunk.
  ........
................


------------------------------------------------------------------------
r957734 | tmcguire | 2009-04-22 19:47:55 +0000 (Wed, 22 Apr 2009) | 20 lines

Backport r957668 by tmcguire from trunk to the 4.2 branch:

Merged revisions 953931 via svnmerge from 
svn+ssh://tmcguire@svn.kde.org/home/kde/branches/kdepim/enterprise4/kdepim

................
  r953931 | winterz | 2009-04-14 21:44:48 +0200 (Tue, 14 Apr 2009) | 10 lines
  
  Merged revisions 953521 via svnmerge from 
  https://svn.kde.org/home/kde/branches/kdepim/enterprise/kdepim
  
  ........
    r953521 | mlaurent | 2009-04-14 04:42:33 -0400 (Tue, 14 Apr 2009) | 3 lines
    
    Fix an other mem leak...
    necessary to port to kde4.2/trunk/e4
  ........
................


------------------------------------------------------------------------
r957736 | tmcguire | 2009-04-22 19:49:16 +0000 (Wed, 22 Apr 2009) | 20 lines

Backport r957669 by tmcguire from trunk to the 4.2 branch:

Merged revisions 955059 via svnmerge from 
svn+ssh://tmcguire@svn.kde.org/home/kde/branches/kdepim/enterprise4/kdepim

................
  r955059 | winterz | 2009-04-16 22:37:26 +0200 (Thu, 16 Apr 2009) | 10 lines
  
  Merged revisions 954785 via svnmerge from 
  https://svn.kde.org/home/kde/branches/kdepim/enterprise/kdepim
  
  ........
    r954785 | mlaurent | 2009-04-16 06:16:42 -0400 (Thu, 16 Apr 2009) | 4 lines
    
    Fix enable/disable widget
    need to backport to e4/trunk/4.2.x
  ........
................


------------------------------------------------------------------------
r957738 | tmcguire | 2009-04-22 19:51:21 +0000 (Wed, 22 Apr 2009) | 19 lines

Backport r957673 by tmcguire from trunk to the 4.2 branch:

Merged revisions 955061 via svnmerge from 
svn+ssh://tmcguire@svn.kde.org/home/kde/branches/kdepim/enterprise4/kdepim

................
  r955061 | winterz | 2009-04-16 22:40:43 +0200 (Thu, 16 Apr 2009) | 9 lines
  
  Merged revisions 954878 via svnmerge from 
  https://svn.kde.org/home/kde/branches/kdepim/enterprise/kdepim
  
  ........
    r954878 | mlaurent | 2009-04-16 09:23:07 -0400 (Thu, 16 Apr 2009) | 2 lines
    
    Fix enable/disable spinbox too
  ........
................


------------------------------------------------------------------------
r957740 | tmcguire | 2009-04-22 19:54:19 +0000 (Wed, 22 Apr 2009) | 23 lines

Backport r957686 by tmcguire from trunk to the 4.2 branch:

Merged revisions 953962 via svnmerge from 
svn+ssh://tmcguire@svn.kde.org/home/kde/branches/kdepim/enterprise4/kdepim

................
  r953962 | winterz | 2009-04-14 22:46:18 +0200 (Tue, 14 Apr 2009) | 13 lines
  
  Merged revisions 953868 via svnmerge from 
  https://svn.kde.org/home/kde/branches/kdepim/enterprise/kdepim
  
  ........
    r953868 | mlaurent | 2009-04-14 12:28:42 -0400 (Tue, 14 Apr 2009) | 6 lines
    
    Fix kolab issue 2130
    Displayed header type in the mail display is wrong
    when we changed header type and double click on mail
    header type was not good because we didn't save config.
    But we mustn't save config when it's an external dialog
  ........
................


------------------------------------------------------------------------
r957742 | tmcguire | 2009-04-22 19:55:32 +0000 (Wed, 22 Apr 2009) | 23 lines

Backport r957692 by tmcguire from trunk to the 4.2 branch:

Merged revisions 956783 via svnmerge from 
svn+ssh://tmcguire@svn.kde.org/home/kde/branches/kdepim/enterprise4/kdepim

................
  r956783 | winterz | 2009-04-20 18:02:03 +0200 (Mon, 20 Apr 2009) | 13 lines
  
  Merged revisions 955442 via svnmerge from 
  https://svn.kde.org/home/kde/branches/kdepim/enterprise/kdepim
  
  ........
    r955442 | mlaurent | 2009-04-17 12:48:18 -0400 (Fri, 17 Apr 2009) | 6 lines
    
    Fix kolab issue 2152
    "System tray doesn't react on the change of a folder configuration"
    When we change status of "Act on new/unread mail in the folder" system tray
    was not updated.
    Need to backport to e4/trunk/4.2
  ........
................


------------------------------------------------------------------------
r957744 | djarvie | 2009-04-22 19:57:50 +0000 (Wed, 22 Apr 2009) | 2 lines

Bug 189929: fix crash on exit

------------------------------------------------------------------------
r958238 | mlaurent | 2009-04-23 15:39:35 +0000 (Thu, 23 Apr 2009) | 3 lines

Backport:
Fix crash when sidebar is hidden

------------------------------------------------------------------------
r958242 | mlaurent | 2009-04-23 15:45:19 +0000 (Thu, 23 Apr 2009) | 3 lines

Backport:
Respect cancel action

------------------------------------------------------------------------
r958265 | mlaurent | 2009-04-23 16:31:23 +0000 (Thu, 23 Apr 2009) | 3 lines

Backport
Fix update ok button

------------------------------------------------------------------------
r958282 | mlaurent | 2009-04-23 17:23:13 +0000 (Thu, 23 Apr 2009) | 4 lines

Backport:
Fix crash when we disable resource and buttons selected doesn't exist after
=> don't try to select it

------------------------------------------------------------------------
r959016 | smartins | 2009-04-25 13:01:29 +0000 (Sat, 25 Apr 2009) | 5 lines

Backport r957766 by smartins from trunk to the 4.2 branch:

Fixes sub-resources appearing doubled. This bug isn't related do akonadi resource allowing two calendar sources with the same name,
it's just a visualization bug.

------------------------------------------------------------------------
r959546 | djarvie | 2009-04-26 14:04:47 +0000 (Sun, 26 Apr 2009) | 2 lines

Bug 189682: fix KAlarm sometimes hanging while trying to play an audio file

------------------------------------------------------------------------
r959549 | djarvie | 2009-04-26 14:12:23 +0000 (Sun, 26 Apr 2009) | 2 lines

Remove duplicate unlock

------------------------------------------------------------------------
r959724 | smartins | 2009-04-26 22:18:01 +0000 (Sun, 26 Apr 2009) | 4 lines

Backport r959714 by smartins from trunk to the 4.2 branch:

When user clicks RMB in the blank space "Move to" option should also be disabled.

------------------------------------------------------------------------
r959879 | tmcguire | 2009-04-27 13:10:31 +0000 (Mon, 27 Apr 2009) | 3 lines

Revert 957724, which needed a function from Qt 4.5
Thanks to Till for noticing.

------------------------------------------------------------------------
r960069 | smartins | 2009-04-27 21:13:00 +0000 (Mon, 27 Apr 2009) | 8 lines

Backport r959710 by smartins from trunk to the 4.2 branch:

If the user used RMB in the blank space (outside all item) the context menu was acting upon the previously selected item. If the user
had for example an akonadi resource selected it was impossible to add another top level resource without restarting korg, it
was only possible to add subresources.

Now, RMB in the blank space will ignore selected items and always show the generic add resource dialog.

------------------------------------------------------------------------
r960468 | winterz | 2009-04-28 13:47:18 +0000 (Tue, 28 Apr 2009) | 2 lines

update version for 4.2.3

------------------------------------------------------------------------
r960469 | winterz | 2009-04-28 13:48:30 +0000 (Tue, 28 Apr 2009) | 2 lines

update version for 4.2.3

------------------------------------------------------------------------
r960470 | winterz | 2009-04-28 13:49:39 +0000 (Tue, 28 Apr 2009) | 3 lines

update version number for 4.2.3.


------------------------------------------------------------------------
r960515 | winterz | 2009-04-28 15:07:29 +0000 (Tue, 28 Apr 2009) | 7 lines

backport SVN commit 950468 by tilladam:

Don't show a context menu on left click for newly created attendees
and as a side effect also not for the example attendee, which makes
sense as well.


------------------------------------------------------------------------
r960528 | vanrijn | 2009-04-28 15:27:00 +0000 (Tue, 28 Apr 2009) | 1 line

bumping version up to match tonight's KDE 4.2.3 tagging
------------------------------------------------------------------------
r960535 | winterz | 2009-04-28 15:41:13 +0000 (Tue, 28 Apr 2009) | 6 lines

backport Add action in kactioncollection before to define
global shortcut
=> so it creates objectname for it.
now it creates globalshortcut but not activate by default
don't know why

------------------------------------------------------------------------
r960539 | winterz | 2009-04-28 15:43:39 +0000 (Tue, 28 Apr 2009) | 5 lines

backport SVN commit 956252 by winterz:

reconnect some signals that got lost somewhere along the way.
fixes category editing.

------------------------------------------------------------------------
r960541 | winterz | 2009-04-28 15:45:35 +0000 (Tue, 28 Apr 2009) | 11 lines

backport SVN commit 956261 by winterz:

Use KActionMenu instead of KToolBarPopupAction for the
"New" and "Synchronize" menus that are built on the fly.

Just gives a one consistent feel for the toolbar, I think.
KToolBarPopupAction is "... designed for history actions
and for any other action that has more detail in a toolbar
than in a menu (e.g. tool chooser with ’Other’ leading to
a dialog...)."  So I think KActionMenu is more appropriate.

------------------------------------------------------------------------
r960606 | tmcguire | 2009-04-28 18:15:05 +0000 (Tue, 28 Apr 2009) | 12 lines

Backport r951033 by tmcguire from trunk to the 4.2 branch:

Fix online IMAP filters not working in various situations.

Patch by Matthias Gehre <M.Gehre@gmx.de>, thanks very much!

CCBUG: 171061
CCBUG: 174430
CCBUG: 182208
CCBUG: 186264


------------------------------------------------------------------------
r960635 | tmcguire | 2009-04-28 19:06:40 +0000 (Tue, 28 Apr 2009) | 7 lines

Backport r960632 by tmcguire from trunk to the 4.2 branch:

Don't put file:/// on top of printouts of mails.

CCBUG: 137352


------------------------------------------------------------------------
r960665 | tmcguire | 2009-04-28 19:47:48 +0000 (Tue, 28 Apr 2009) | 1 line

Version++
------------------------------------------------------------------------
r960692 | tmcguire | 2009-04-28 20:24:19 +0000 (Tue, 28 Apr 2009) | 1 line

Revert the backport of 951208 by gladhorn, because that makes pasting URLs impossible.
------------------------------------------------------------------------
r960711 | winterz | 2009-04-28 21:20:32 +0000 (Tue, 28 Apr 2009) | 2 lines

whoops. no, we don't want compact dialogs

------------------------------------------------------------------------
r960718 | tmcguire | 2009-04-28 21:50:48 +0000 (Tue, 28 Apr 2009) | 15 lines

Backport r960717 by tmcguire from trunk to the 4.2 branch:

Merged revisions 960715 via svnmerge from 
svn+ssh://tmcguire@svn.kde.org/home/kde/branches/kdepim/enterprise4/kdepim

........
  r960715 | tmcguire | 2009-04-28 23:45:08 +0200 (Tue, 28 Apr 2009) | 5 lines
  
  Don't restart KMail when using a Kolab resource and KMail just quit.
  Even though I like KMail, this is a bit too much ;)
  
  CCBUG: 189824
........


------------------------------------------------------------------------
r960724 | woebbe | 2009-04-28 22:13:28 +0000 (Tue, 28 Apr 2009) | 1 line

createDayLabels(): don't leak KWordWrap
------------------------------------------------------------------------
r960832 | woebbe | 2009-04-29 07:57:05 +0000 (Wed, 29 Apr 2009) | 3 lines

backport of rev. 960727 by smartins:

Don't leak KDateTimes.
------------------------------------------------------------------------
r960982 | smartins | 2009-04-29 12:17:33 +0000 (Wed, 29 Apr 2009) | 10 lines

Backport r960737 by smartins from trunk to the 4.2 branch:

Fix splitter sizes when using decoration plugins.

When going to configuration dialog and enabling Date Numbers Plugin, with "show on top", it would be shown at bottom, and only shown
correctly when korganizer was restarted.

This had the side effect that when korganizer was closed, it stored in korganizerrc splitter sizes with the third value belonging to
the incorrectly shown decoration, the next time korganizer was started it used the third value for the agenda.

------------------------------------------------------------------------
r961247 | djarvie | 2009-04-29 18:56:35 +0000 (Wed, 29 Apr 2009) | 2 lines

Bug 190952: Fix crash at startup if a non-recurring cancel-if-late alarm has been missed.

------------------------------------------------------------------------
r961309 | woebbe | 2009-04-29 21:36:51 +0000 (Wed, 29 Apr 2009) | 1 line

also free mHistory in dtor
------------------------------------------------------------------------
r961650 | tmcguire | 2009-04-30 14:00:30 +0000 (Thu, 30 Apr 2009) | 20 lines

Backport r961590 by tmcguire from trunk to the 4.2 branch:

Merged revisions 958755 via svnmerge from 
svn+ssh://tmcguire@svn.kde.org/home/kde/branches/kdepim/enterprise4/kdepim

................
  r958755 | winterz | 2009-04-24 17:16:55 +0200 (Fri, 24 Apr 2009) | 10 lines
  
  Merged revisions 957511 via svnmerge from 
  https://svn.kde.org/home/kde/branches/kdepim/enterprise/kdepim
  
  ........
    r957511 | mlaurent | 2009-04-22 05:45:49 -0400 (Wed, 22 Apr 2009) | 3 lines
    
    Fix kolab issue 2508
    don't send email when we can't write event.
  ........
................


------------------------------------------------------------------------
r961651 | tmcguire | 2009-04-30 14:02:20 +0000 (Thu, 30 Apr 2009) | 9 lines

Backport r960620 by jtamate from trunk to the 4.2 branch:

CCBUG: 88271
CCBUG: 152707

Use the right regular expresion to check for mail headers.
Also, use a mini ad-hoc state machine to not treat all that looks like headers as headers.
When a blank line is found, it is supposed to start a body part, until a header with Content- is found.

------------------------------------------------------------------------
r961652 | tmcguire | 2009-04-30 14:03:36 +0000 (Thu, 30 Apr 2009) | 19 lines

Backport r961588 by tmcguire from trunk to the 4.2 branch:

Merged revisions 958596 via svnmerge from 
svn+ssh://tmcguire@svn.kde.org/home/kde/branches/kdepim/enterprise4/kdepim

................
  r958596 | winterz | 2009-04-24 14:45:47 +0200 (Fri, 24 Apr 2009) | 9 lines
  
  Merged revisions 957569 via svnmerge from 
  https://svn.kde.org/home/kde/branches/kdepim/enterprise/kdepim
  
  ........
    r957569 | mlaurent | 2009-04-22 09:28:32 -0400 (Wed, 22 Apr 2009) | 2 lines
    
    Fix enable/disable button when email is empty
  ........
................


------------------------------------------------------------------------
r961653 | tmcguire | 2009-04-30 14:05:51 +0000 (Thu, 30 Apr 2009) | 19 lines

Backport r961601 by tmcguire from trunk to the 4.2 branch:

Merged revisions 959937 via svnmerge from 
svn+ssh://tmcguire@svn.kde.org/home/kde/branches/kdepim/enterprise4/kdepim

................
  r959937 | winterz | 2009-04-27 17:26:00 +0200 (Mon, 27 Apr 2009) | 9 lines
  
  Merged revisions 957549 via svnmerge from 
  https://svn.kde.org/home/kde/branches/kdepim/enterprise/kdepim
  
  ........
    r957549 | mlaurent | 2009-04-22 08:42:24 -0400 (Wed, 22 Apr 2009) | 2 lines
    
    Disable ok button until we choose an option
  ........
................


------------------------------------------------------------------------
r961659 | tmcguire | 2009-04-30 14:07:56 +0000 (Thu, 30 Apr 2009) | 20 lines

Backport r961605 by tmcguire from trunk to the 4.2 branch:

Merged revisions 959948 via svnmerge from 
svn+ssh://tmcguire@svn.kde.org/home/kde/branches/kdepim/enterprise4/kdepim

................
  r959948 | winterz | 2009-04-27 18:00:27 +0200 (Mon, 27 Apr 2009) | 10 lines
  
  Merged revisions 958071 via svnmerge from 
  https://svn.kde.org/home/kde/branches/kdepim/enterprise/kdepim
  
  ........
    r958071 | mlaurent | 2009-04-23 07:57:58 -0400 (Thu, 23 Apr 2009) | 3 lines
    
    Fix all crash when we undo/redo action and we deleted resource
    (never saw theses bugs and fixed ??)
  ........
................


------------------------------------------------------------------------
r961662 | tmcguire | 2009-04-30 14:08:40 +0000 (Thu, 30 Apr 2009) | 19 lines

Backport r961611 by tmcguire from trunk to the 4.2 branch:

Merged revisions 959949 via svnmerge from 
svn+ssh://tmcguire@svn.kde.org/home/kde/branches/kdepim/enterprise4/kdepim

................
  r959949 | winterz | 2009-04-27 18:03:06 +0200 (Mon, 27 Apr 2009) | 9 lines
  
  Merged revisions 958084 via svnmerge from 
  https://svn.kde.org/home/kde/branches/kdepim/enterprise/kdepim
  
  ........
    r958084 | mlaurent | 2009-04-23 08:27:19 -0400 (Thu, 23 Apr 2009) | 2 lines
    
    Don't allow to change image when address is read only
  ........
................


------------------------------------------------------------------------
r961664 | tmcguire | 2009-04-30 14:09:37 +0000 (Thu, 30 Apr 2009) | 19 lines

Backport r961612 by tmcguire from trunk to the 4.2 branch:

Merged revisions 959959 via svnmerge from 
svn+ssh://tmcguire@svn.kde.org/home/kde/branches/kdepim/enterprise4/kdepim

................
  r959959 | winterz | 2009-04-27 18:35:11 +0200 (Mon, 27 Apr 2009) | 9 lines
  
  Merged revisions 958119 via svnmerge from 
  https://svn.kde.org/home/kde/branches/kdepim/enterprise/kdepim
  
  ........
    r958119 | mlaurent | 2009-04-23 08:59:41 -0400 (Thu, 23 Apr 2009) | 2 lines
    
    Fix disable/enable custom field when resource is readonly
  ........
................


------------------------------------------------------------------------
r961668 | tmcguire | 2009-04-30 14:10:20 +0000 (Thu, 30 Apr 2009) | 19 lines

Backport r961614 by tmcguire from trunk to the 4.2 branch:

Merged revisions 959961 via svnmerge from 
svn+ssh://tmcguire@svn.kde.org/home/kde/branches/kdepim/enterprise4/kdepim

................
  r959961 | winterz | 2009-04-27 18:37:57 +0200 (Mon, 27 Apr 2009) | 9 lines
  
  Merged revisions 958126 via svnmerge from 
  https://svn.kde.org/home/kde/branches/kdepim/enterprise/kdepim
  
  ........
    r958126 | mlaurent | 2009-04-23 09:04:00 -0400 (Thu, 23 Apr 2009) | 2 lines
    
    Don't allow to edit when resource is read only
  ........
................


------------------------------------------------------------------------
